…
#### The Data

``` r
# Dataset 1
library(Stat2Data)
data(LosingSleep)


# dataset 2
library(readr)
StudentMH <- read_csv("StudentMentalHealth.csv")
StudentMH
```

    ## # A tibble: 1,182 x 17
    ##    ID    `Age of Subject` `Time spent on ~ `Rating of Onli~ `Medium for onl~
    ##    <chr>            <dbl>            <dbl> <chr>            <chr>           
    ##  1 R1                  21                2 Good             Laptop/Desktop  
    ##  2 R2                  21                0 Excellent        Smartphone      
    ##  3 R3                  20                7 Very poor        Laptop/Desktop  
    ##  4 R4                  20                3 Very poor        Smartphone      
    ##  5 R5                  21                3 Good             Laptop/Desktop  
    ##  6 R6                  21                0 Very poor        Smartphone      
    ##  7 R7                  19                2 Very poor        Smartphone      
    ##  8 R8                  19                2 Very poor        Tablet          
    ##  9 R9                  21                3 Very poor        Laptop/Desktop  
    ## 10 R10                 20                0 Very poor        Laptop/Desktop  
    ## # ... with 1,172 more rows, and 12 more variables: `Time spent on self
    ## #   study` <dbl>, `Time spent on fitness` <dbl>, `Time spent on sleep` <dbl>,
    ## #   `Time spent on social media` <dbl>, `Prefered social media platform` <chr>,
    ## #   `Number of meals per day` <dbl>, `Change in your weight` <chr>, `Health
    ## #   issue during lockdown` <chr>, `Stress busters` <chr>, `Time
    ## #   utilized` <chr>, `Do you find yourself more connected with your family,
    ## #   close friends , relatives ?` <chr>, `What you miss the most` <chr>
…
``` r
# remove column 'Person' from 'losingsleep'
losingsleep$Person <- NULL

# remove 'Id' column from 'StudentMH'
StudentMH$ID <- NULL

# rename "age of subject" to "Age" in 'StudentMH'
StudentMH1 <- StudentMH %>%
  rename( Age = "Age of Subject")
StudentMH1 #view new variable name
```

    ## # A tibble: 1,182 x 16
    ##      Age `Time spent on ~ `Rating of Onli~ `Medium for onl~ `Time spent on ~
    ##    <dbl>            <dbl> <chr>            <chr>                       <dbl>
    ##  1    21                2 Good             Laptop/Desktop                  4
    ##  2    21                0 Excellent        Smartphone                      0
    ##  3    20                7 Very poor        Laptop/Desktop                  3
    ##  4    20                3 Very poor        Smartphone                      2
    ##  5    21                3 Good             Laptop/Desktop                  3
    ##  6    21                0 Very poor        Smartphone                      6
    ##  7    19                2 Very poor        Smartphone                      2
    ##  8    19                2 Very poor        Tablet                          1
    ##  9    21                3 Very poor        Laptop/Desktop                  4
    ## 10    20                0 Very poor        Laptop/Desktop                  1
    ## # ... with 1,172 more rows, and 11 more variables: `Time spent on
    ## #   fitness` <dbl>, `Time spent on sleep` <dbl>, `Time spent on social
    ## #   media` <dbl>, `Prefered social media platform` <chr>, `Number of meals per
    ## #   day` <dbl>, `Change in your weight` <chr>, `Health issue during
    ## #   lockdown` <chr>, `Stress busters` <chr>, `Time utilized` <chr>, `Do you
    ## #   find yourself more connected with your family, close friends , relatives
    ## #   ?` <chr>, `What you miss the most` <chr>

``` r
# rename sleep variable in 'StudentMH'
StudentMH2 <- StudentMH1 %>%
  rename( enoughsleep = `Time spent on sleep`)

# change var 'enoughsleep' in 'StudentMH2' to catergorical
StudentMH2$enoughsleep <- factor(ifelse(StudentMH2$enoughsleep >= 7, "Yes", "No"))
StudentMH2
```

    ## # A tibble: 1,182 x 16
    ##      Age `Time spent on ~ `Rating of Onli~ `Medium for onl~ `Time spent on ~
    ##    <dbl>            <dbl> <chr>            <chr>                       <dbl>
    ##  1    21                2 Good             Laptop/Desktop                  4
    ##  2    21                0 Excellent        Smartphone                      0
    ##  3    20                7 Very poor        Laptop/Desktop                  3
    ##  4    20                3 Very poor        Smartphone                      2
    ##  5    21                3 Good             Laptop/Desktop                  3
    ##  6    21                0 Very poor        Smartphone                      6
    ##  7    19                2 Very poor        Smartphone                      2
    ##  8    19                2 Very poor        Tablet                          1
    ##  9    21                3 Very poor        Laptop/Desktop                  4
    ## 10    20                0 Very poor        Laptop/Desktop                  1
    ## # ... with 1,172 more rows, and 11 more variables: `Time spent on
    ## #   fitness` <dbl>, enoughsleep <fct>, `Time spent on social media` <dbl>,
    ## #   `Prefered social media platform` <chr>, `Number of meals per day` <dbl>,
    ## #   `Change in your weight` <chr>, `Health issue during lockdown` <chr>,
    ## #   `Stress busters` <chr>, `Time utilized` <chr>, `Do you find yourself more
    ## #   connected with your family, close friends , relatives ?` <chr>, `What you
    ## #   miss the most` <chr>
…
#### 2. Join/Merge

``` r
#join both datasets into a new dataset called "StudentSleep"

StudentSleep <- StudentMH2 %>%
  full_join(losingsleep) #joined by 'Age' and 'enoughsleep'
                           
StudentSleep #view 'StudentSleep'
```

    ## # A tibble: 15,334 x 16
    ##      Age `Time spent on ~ `Rating of Onli~ `Medium for onl~ `Time spent on ~
    ##    <dbl>            <dbl> <chr>            <chr>                       <dbl>
    ##  1    21                2 Good             Laptop/Desktop                  4
    ##  2    21                0 Excellent        Smartphone                      0
    ##  3    20                7 Very poor        Laptop/Desktop                  3
    ##  4    20                3 Very poor        Smartphone                      2
    ##  5    21                3 Good             Laptop/Desktop                  3
    ##  6    21                0 Very poor        Smartphone                      6
    ##  7    19                2 Very poor        Smartphone                      2
    ##  8    19                2 Very poor        Tablet                          1
    ##  9    21                3 Very poor        Laptop/Desktop                  4
    ## 10    20                0 Very poor        Laptop/Desktop                  1
    ## # ... with 15,324 more rows, and 11 more variables: `Time spent on
    ## #   fitness` <dbl>, enoughsleep <fct>, `Time spent on social media` <dbl>,
    ## #   `Prefered social media platform` <chr>, `Number of meals per day` <dbl>,
    ## #   `Change in your weight` <chr>, `Health issue during lockdown` <chr>,
    ## #   `Stress busters` <chr>, `Time utilized` <chr>, `Do you find yourself more
    ## #   connected with your family, close friends , relatives ?` <chr>, `What you
    ## #   miss the most` <chr>

``` r
distinct(StudentSleep)
```

    ## # A tibble: 1,179 x 16
    ##      Age `Time spent on ~ `Rating of Onli~ `Medium for onl~ `Time spent on ~
    ##    <dbl>            <dbl> <chr>            <chr>                       <dbl>
    ##  1    21                2 Good             Laptop/Desktop                  4
    ##  2    21                0 Excellent        Smartphone                      0
    ##  3    20                7 Very poor        Laptop/Desktop                  3
    ##  4    20                3 Very poor        Smartphone                      2
    ##  5    21                3 Good             Laptop/Desktop                  3
    ##  6    21                0 Very poor        Smartphone                      6
    ##  7    19                2 Very poor        Smartphone                      2
    ##  8    19                2 Very poor        Tablet                          1
    ##  9    21                3 Very poor        Laptop/Desktop                  4
    ## 10    20                0 Very poor        Laptop/Desktop                  1
    ## # ... with 1,169 more rows, and 11 more variables: `Time spent on
    ## #   fitness` <dbl>, enoughsleep <fct>, `Time spent on social media` <dbl>,
    ## #   `Prefered social media platform` <chr>, `Number of meals per day` <dbl>,
    ## #   `Change in your weight` <chr>, `Health issue during lockdown` <chr>,
    ## #   `Stress busters` <chr>, `Time utilized` <chr>, `Do you find yourself more
    ## #   connected with your family, close friends , relatives ?` <chr>, `What you
    ## #   miss the most` <chr>
…
